<svg xmlns="http://www.w3.org/2000/svg" width="60" height="60" viewBox="0 0 60 60">
    <path fill="#5E607F" fill-rule="nonzero" d="M7.5 0h45A7.5 7.5 0 0 1 60 7.5v45a7.5 7.5 0 0 1-7.5 7.5h-45A7.5 7.5 0 0 1 0 52.5v-45A7.5 7.5 0 0 1 7.5 0zm0 5A2.5 2.5 0 0 0 5 7.5v45A2.5 2.5 0 0 0 7.5 55h45a2.5 2.5 0 0 0 2.5-2.5v-45A2.5 2.5 0 0 0 52.5 5h-45zM40 45c-5.863 0-10-6.895-10-15s4.137-15 10-15 10 6.895 10 15-4.137 15-10 15zm0-5c2.422 0 5-4.297 5-10s-2.578-10-5-10-5 4.297-5 10 2.578 10 5 10zm-24.895 1.782L21.64 20H12.5a2.5 2.5 0 1 1 0-5H25a2.5 2.5 0 0 1 2.395 3.218l-7.5 25a2.5 2.5 0 1 1-4.79-1.436z"/>
</svg>
