<svg xmlns="http://www.w3.org/2000/svg" width="229" height="50" viewBox="0 0 229 50">
    <g fill="#EEEFF2" fill-rule="evenodd" opacity=".5">
        <path d="M156.025 5.18h4.089v24.43l-3.838.002V13.66l-8.224 15.95h-4.103V5.18h3.843v16.263l8.233-16.264zm37.909 14.766l2.745-9.068 2.801 9.069-5.546-.001zm.625-14.766l-7.917 24.43 4.354.002 1.675-5.553h8.124l1.775 5.552h4.467L198.898 5.18h-4.34zm-16.147 0h4.104l-.001 24.43h-4.103V18.929h-8.039v10.683h-4.107V5.179h4.107v9.614h8.04V5.179zm-38.585 0v4.1h-9.663v20.33h-4.107l.001-24.43h13.769zm83.27 24.43l.001-20.295h-6.114v10.433c0 2.986-.085 5.074-.25 6.256-.166 1.184-.574 2.105-1.212 2.765-.644.66-1.647.99-3.02.99-.477 0-1.353-.05-2.616-.165v-3.817l.914.017c.86 0 1.438-.137 1.73-.416.3-.278.446-.96.446-2.053l-.014-4.198V5.18H227.2v24.432l-4.103-.001zM119.711 5.18v24.43h-3.838V13.66l-8.225 15.95h-4.101V5.18h3.842v16.263l8.234-16.264h4.088zM71.637 23.683c-1.05 1.421-2.393 2.126-4.025 2.126-1.639 0-2.987-.71-4.052-2.139-1.06-1.427-1.594-3.525-1.595-6.29 0-2.816.522-4.916 1.553-6.31 1.036-1.393 2.4-2.092 4.093-2.092 1.69 0 3.047.689 4.07 2.065 1.016 1.382 1.527 3.47 1.527 6.27 0 2.832-.524 4.953-1.57 6.37zm-4.069-18.92c2.996 0 5.39 1.114 7.188 3.35 1.798 2.23 2.696 5.336 2.697 9.312 0 3.948-.894 7.03-2.677 9.26-1.784 2.225-4.17 3.34-7.15 3.34-3.025 0-5.429-1.11-7.213-3.322-1.783-2.219-2.673-5.274-2.673-9.159 0-2.49.308-4.579.928-6.269a11.935 11.935 0 0 1 1.892-3.35c.8-.984 1.676-1.717 2.627-2.195 1.268-.649 2.725-.968 4.381-.967zm15.039 24.847V5.179h6.582c2.494 0 4.122.126 4.879.37 1.164.364 2.144 1.16 2.929 2.39.785 1.228 1.178 2.815 1.178 4.755 0 1.502-.227 2.765-.682 3.782-.453 1.025-1.027 1.826-1.727 2.412-.695.58-1.405.967-2.124 1.154-.98.235-2.399.354-4.259.353h-2.674v9.216h-4.102zm4.102-20.296v6.928h2.244c1.618 0 2.702-.125 3.246-.38.544-.258.97-.655 1.282-1.202.308-.545.464-1.177.464-1.9 0-.886-.218-1.62-.653-2.2-.43-.575-.985-.94-1.647-1.081-.492-.114-1.476-.166-2.952-.166h-1.984zM24.371.195l11.631 14.053-11.63 14.055L12.74 14.249 24.37.194zM0 29.65l11.63-14.053L23.262 29.65H0zm48.742-.013H25.481l11.63-14.054 11.631 14.054z"/>
        <text font-family="Roboto-Regular, Roboto" font-size="13" transform="translate(0 1)">
            <tspan x="0" y="42">завод светопрозрачных конструкций</tspan>
        </text>
    </g>
</svg>
