<svg id="Слой_1" data-name="Слой 1" xmlns="http://www.w3.org/2000/svg" width="28" height="28" viewBox="0 0 28 28">
    <defs>
        <style>
            .cls-1 {
            fill: #5e607f;
            }
        </style>
    </defs>
    <title>child</title>
    <path class="cls-1" d="M17.16,6.46A11,11,0,0,1,24.25,13a4,4,0,0,1,0,8,11,11,0,0,1-20.5,0,4,4,0,0,1,0-8A11,11,0,0,1,14,6a2,2,0,1,0-2-2,1,1,0,0,1-2,0,4,4,0,0,1,8,0A4,4,0,0,1,17.16,6.46ZM5.61,13.73l-.46,1.19L3.87,15a2,2,0,0,0,0,4l1.28.08.46,1.19a9,9,0,0,0,16.78,0l.46-1.19L24.13,19a2,2,0,0,0,0-4l-1.28-.08-.46-1.19a9,9,0,0,0-16.78,0ZM10.5,18A1.5,1.5,0,1,1,12,16.5,1.5,1.5,0,0,1,10.5,18Zm7,0A1.5,1.5,0,1,1,19,16.5,1.5,1.5,0,0,1,17.5,18Zm-.28,3.34a1,1,0,0,1-1.5,1.33h0A2,2,0,0,0,14.23,22a2,2,0,0,0-1.49.66,1,1,0,1,1-1.48-1.34,4,4,0,0,1,6,0Z"/>
</svg>