<svg xmlns="http://www.w3.org/2000/svg" width="24" height="24" viewBox="0 0 24 24">
    <path fill="#5E607F" fill-rule="nonzero" d="M7.586 15H6a1 1 0 0 1 0-2h4a1 1 0 0 1 1 1v4a1 1 0 0 1-2 0v-1.586l-2.793 2.793a1 1 0 1 1-1.414-1.414L7.586 15zm9 0H15a1 1 0 0 1 0-2h4a1 1 0 0 1 1 1v4a1 1 0 0 1-2 0v-1.586l-2.793 2.793a1 1 0 0 1-1.414-1.414L16.586 15zm0-9H15a1 1 0 0 1 0-2h4a1 1 0 0 1 1 1v4a1 1 0 0 1-2 0V7.414l-2.793 2.793a1 1 0 0 1-1.414-1.414L16.586 6zm-9 0H6a1 1 0 1 1 0-2h4a1 1 0 0 1 1 1v4a1 1 0 0 1-2 0V7.414l-2.793 2.793a1 1 0 1 1-1.414-1.414L7.586 6zM3 0h18a3 3 0 0 1 3 3v18a3 3 0 0 1-3 3H3a3 3 0 0 1-3-3V3a3 3 0 0 1 3-3zm0 2a1 1 0 0 0-1 1v18a1 1 0 0 0 1 1h18a1 1 0 0 0 1-1V3a1 1 0 0 0-1-1H3z"/>
</svg>
