<svg xmlns="http://www.w3.org/2000/svg" width="24" height="24" viewBox="0 0 24 24">
    <path fill="#5E607F" fill-rule="nonzero" d="M3 2a1 1 0 0 0-1 1v18a1 1 0 0 0 1 1h18a1 1 0 0 0 1-1V3a1 1 0 0 0-1-1H3zm0-2h18a3 3 0 0 1 3 3v18a3 3 0 0 1-3 3H3a3 3 0 0 1-3-3V3a3 3 0 0 1 3-3zm6 9h1.528a1 1 0 0 1 0 2H9v4a2 2 0 1 0 4 0v-.915a1 1 0 1 1 2 0V15a4 4 0 1 1-8 0v-4a1 1 0 0 1 0-2V6a1 1 0 1 1 2 0v3zm7 2a3 3 0 1 1 0-6 3 3 0 0 1 0 6zm0-2a1 1 0 1 0 0-2 1 1 0 0 0 0 2z"/>
</svg>
